R code for chord diagrams of Chinese internal migration | Guy Abel
…
Region details used for plotting, see here for the file used below

Note, the names in the region data are the same as the ones used in the origin and destination data.

We can read in the data using read_csv() in the readr package

library(tidyverse)

d1 <- read_csv("https://gist.githubusercontent.com/guyabel/c24d990abc2c692f2b63747ee42909eb/raw/6b255edee7e01ca31b856152d18ae10ad50badd5/china_flow_2010_2015.csv")

d1 <- mutate(d1, flow = flow/1e6)
d1

## # A tibble: 961 x 3
##    orig           dest      flow
##    <chr>          <chr>    <dbl>
##  1 Beijing        Beijing 0     
##  2 Tianjin        Beijing 0.0674
##  3 Hebei          Beijing 0.864 
##  4 Shanxi         Beijing 0.225 
##  5 Inner Mongolia Beijing 0.103 
##  6 Liaoning       Beijing 0.155 
##  7 Jilin          Beijing 0.105 
##  8 Heilongjiang   Beijing 0.194 
##  9 Shanghai       Beijing 0.0266
## 10 Jiangsu        Beijing 0.111 
## # ... with 951 more rows

d2 <- read_csv("https://gist.githubusercontent.com/guyabel/2f52e1593ad951800d83530a58ce0079/raw/165843fdd4afc61e17cd7658563e573c1e74fb57/china_region_details.csv")
d2

## # A tibble: 31 x 6
##    name      region order colour    gap name_zh
##    <chr>     <chr>  <dbl> <chr>   <dbl> <chr>  
##  1 Beijing   East       1 #B61416     2 <U+5317><U+4EAC>   
##  2 Tianjin   East       2 #C01517     2 <U+5929><U+6D25>   
##  3 Hebei     East       3 #CA1718     2 <U+6CB3><U+5317>   
##  4 Shandong  East       4 #D4181A     2 <U+5C71><U+4E1C>   
##  5 Jiangsu   East       5 #DE191B     2 <U+6C5F><U+82CF>   
##  6 Shanghai  East       6 #E91A1C     2 <U+4E0A><U+6D77>   
##  7 Zhejiang  East       7 #F31B1D     2 <U+6D59><U+6C5F>   
##  8 Fujian    East       8 #FD1C1F     2 <U+798F><U+5EFA>   
##  9 Guangdong East       9 #FF1E20     2 <U+5E7F><U+4E1C>   
## 10 Hainan    East      10 #FF1F21     6 <U+6D77><U+5357>   
## # ... with 21 more rows
…
