R code for animated chord diagrams | Guy Abel
…
Recently I have been playing around tweenr and the magick packages for animated population pyramids. In this post I attempt to show how to use these packages to produce animated directional chord diagrams of global migration flow estimates

Data

The first step is to read into R two data frames (these are in my migest R package if you wish to replicate the code below).

Time series of bilateral migration flow estimates:

# install.packages("migest")
library(tidyverse)
d0 <- read_csv(system.file("imr", "reg_flow.csv", package = "migest"))
d0 

## # A tibble: 891 × 4
##    year0 orig_reg     dest_reg                         flow
##    <dbl> <chr>        <chr>                           <dbl>
##  1  1960 Africa       Africa                        1377791
##  2  1960 Africa       Eastern Asia                     5952
##  3  1960 Africa       Eastern Europe & Central Asia    7303
##  4  1960 Africa       Europe                         919252
##  5  1960 Africa       Latin America & Caribbean       15796
##  6  1960 Africa       Northern America                82463
##  7  1960 Africa       Oceania                         32825
##  8  1960 Africa       Southern Asia                   35603
##  9  1960 Africa       Western Asia                   106580
## 10  1960 Eastern Asia Africa                          37301
## # … with 881 more rows
…
Tween

The next step is to tween the data by migration corridor.

library(tweenr)

d2 <- d0 %>%
  mutate(corridor = paste(orig_reg, dest_reg, sep = " -> ")) %>%
  select(corridor, year0, flow) %>%
  mutate(ease = "linear") %>%
  tween_elements(time = "year0", group = "corridor", ease = "ease", nframes = 100) %>%
  as_tibble()
d2

## # A tibble: 8,181 × 4
##    year0    flow .frame .group                                 
##    <dbl>   <dbl>  <int> <chr>                                  
##  1  1960 1377791      0 Africa -> Africa                       
##  2  1960    5952      0 Africa -> Eastern Asia                 
##  3  1960    7303      0 Africa -> Eastern Europe & Central Asia
##  4  1960  919252      0 Africa -> Europe                       
##  5  1960   15796      0 Africa -> Latin America & Caribbean    
##  6  1960   82463      0 Africa -> Northern America             
##  7  1960   32825      0 Africa -> Oceania                      
##  8  1960   35603      0 Africa -> Southern Asia                
##  9  1960  106580      0 Africa -> Western Asia                 
## 10  1960   37301      0 Eastern Asia -> Africa                 
## # … with 8,171 more rows

This creates larger data frame d2, with 100 observations for each corridor, one for each frame in the animation. In the original data d0 there are only 11 observations for each corridor, one for each five-year period.

Then some further minor data wrangling is required to ready the data for plotting using the chordDiagram function; namely the first three columns in the data must correspond to the origin, destination and flow.

d2 <- d2 %>%
  separate(col = .group, into = c("orig_reg", "dest_reg"), sep = " -> ") %>%
  select(orig_reg, dest_reg, flow, everything()) %>%
  mutate(flow = flow/1e06)
d2

## # A tibble: 8,181 × 5
##    orig_reg     dest_reg                         flow year0 .frame
##    <chr>        <chr>                           <dbl> <dbl>  <int>
##  1 Africa       Africa                        1.38     1960      0
##  2 Africa       Eastern Asia                  0.00595  1960      0
##  3 Africa       Eastern Europe & Central Asia 0.00730  1960      0
##  4 Africa       Europe                        0.919    1960      0
##  5 Africa       Latin America & Caribbean     0.0158   1960      0
##  6 Africa       Northern America              0.0825   1960      0
##  7 Africa       Oceania                       0.0328   1960      0
##  8 Africa       Southern Asia                 0.0356   1960      0
##  9 Africa       Western Asia                  0.107    1960      0
## 10 Eastern Asia Africa                        0.0373   1960      0
## # … with 8,171 more rows
…
gap_at_max is the size in degrees of the gaps in the flow matrix in the year where the flows are at their all time maximum.

gaps is the number of gaps in the chord diagram (i.e. the number of regions).

The function can be used to derive the size of gaps in each frame for a new animation.

d3 <- d2 %>%
  group_by(.frame) %>%
  summarise(flow = sum(flow)) %>%
  mutate(gaps = scale_gap(flow_m = flow, flow_max = max(.$flow), 
                          gap_at_max = 4, gaps = 9))

d3

## # A tibble: 101 × 3
##    .frame  flow  gaps
##     <int> <dbl> <dbl>
##  1      0  17.6  25.9
##  2      1  17.8  25.7
##  3      2  18.1  25.6
##  4      3  18.3  25.4
##  5      4  18.5  25.2
##  6      5  18.7  25.1
##  7      6  18.9  24.9
##  8      7  19.1  24.7
##  9      8  19.3  24.6
## 10      9  19.6  24.4
## # … with 91 more rows
…
